\relax 
\providecommand\hyper@newdestlabel[2]{}
\providecommand\babel@aux[2]{}
\@nameuse{bbl@beforestart}
\providecommand\HyperFirstAtBeginDocument{\AtBeginDocument}
\HyperFirstAtBeginDocument{\ifx\hyper@anchor\@undefined
\global\let\oldcontentsline\contentsline
\gdef\contentsline#1#2#3#4{\oldcontentsline{#1}{#2}{#3}}
\global\let\oldnewlabel\newlabel
\gdef\newlabel#1#2{\newlabelxx{#1}#2}
\gdef\newlabelxx#1#2#3#4#5#6{\oldnewlabel{#1}{{#2}{#3}}}
\AtEndDocument{\ifx\hyper@anchor\@undefined
\let\contentsline\oldcontentsline
\let\newlabel\oldnewlabel
\fi}
\fi}
\global\let\hyper@last\relax 
\gdef\HyperFirstAtBeginDocument#1{#1}
\providecommand*\HyPL@Entry[1]{}
\HyPL@Entry{0<</S/D>>}
\babel@aux{french}{}
\HyPL@Entry{2<</S/r>>}
\HyPL@Entry{6<</S/D>>}
\newlabel{index::doc}{{}{1}{}{section*.2}{}}
\@writefile{toc}{\contentsline {chapter}{\numberline {1}Accueil des stagiaires}{3}{chapter.1}\protected@file@percent }
\@writefile{lof}{\addvspace {10\p@ }}
\@writefile{lot}{\addvspace {10\p@ }}
\newlabel{index:accueil-des-stagiaires}{{1}{3}{Accueil des stagiaires}{chapter.1}{}}
\@writefile{toc}{\contentsline {chapter}{\numberline {2}Présentation et installation des outils du langage}{5}{chapter.2}\protected@file@percent }
\@writefile{lof}{\addvspace {10\p@ }}
\@writefile{lot}{\addvspace {10\p@ }}
\newlabel{index:presentation-et-installation-des-outils-du-langage}{{2}{5}{Présentation et installation des outils du langage}{chapter.2}{}}
\@writefile{toc}{\contentsline {section}{\numberline {2.1}Conception et modélisations}{6}{section.2.1}\protected@file@percent }
\newlabel{index:conception-et-modelisations}{{2.1}{6}{Conception et modélisations}{section.2.1}{}}
\@writefile{toc}{\contentsline {subsection}{\numberline {2.1.1}Réalités des développeurs}{6}{subsection.2.1.1}\protected@file@percent }
\newlabel{index:realites-des-developpeurs}{{2.1.1}{6}{Réalités des développeurs}{subsection.2.1.1}{}}
\@writefile{toc}{\contentsline {subsection}{\numberline {2.1.2}Bonnes pratiques}{6}{subsection.2.1.2}\protected@file@percent }
\newlabel{index:bonnes-pratiques}{{2.1.2}{6}{Bonnes pratiques}{subsection.2.1.2}{}}
\@writefile{toc}{\contentsline {section}{\numberline {2.2}Les environnements systèmes}{7}{section.2.2}\protected@file@percent }
\newlabel{index:les-environnements-systemes}{{2.2}{7}{Les environnements systèmes}{section.2.2}{}}
\@writefile{toc}{\contentsline {subsection}{\numberline {2.2.1}EnvironnementUNIX/Linux sous Windows}{7}{subsection.2.2.1}\protected@file@percent }
\newlabel{index:environnementunix-linux-sous-windows}{{2.2.1}{7}{EnvironnementUNIX/Linux sous Windows}{subsection.2.2.1}{}}
\@writefile{toc}{\contentsline {subsubsection}{SSH et Telnet}{7}{subsubsection*.3}\protected@file@percent }
\newlabel{index:ssh-et-telnet}{{2.2.1}{7}{SSH et Telnet}{subsubsection*.3}{}}
\@writefile{toc}{\contentsline {subsubsection}{Serveur X}{7}{subsubsection*.4}\protected@file@percent }
\newlabel{index:serveur-x}{{2.2.1}{7}{Serveur X}{subsubsection*.4}{}}
\@writefile{toc}{\contentsline {subsubsection}{RDP}{7}{subsubsection*.5}\protected@file@percent }
\newlabel{index:rdp}{{2.2.1}{7}{RDP}{subsubsection*.5}{}}
\@writefile{toc}{\contentsline {subsubsection}{Nomachine/freenx ou X2GO (optimisation X)}{7}{subsubsection*.6}\protected@file@percent }
\newlabel{index:nomachine-freenx-ou-x2go-optimisation-x}{{2.2.1}{7}{Nomachine/freenx ou X2GO (optimisation X)}{subsubsection*.6}{}}
\@writefile{toc}{\contentsline {subsubsection}{VNC}{7}{subsubsection*.7}\protected@file@percent }
\newlabel{index:vnc}{{2.2.1}{7}{VNC}{subsubsection*.7}{}}
\@writefile{toc}{\contentsline {subsection}{\numberline {2.2.2}Linux sous Windows}{8}{subsection.2.2.2}\protected@file@percent }
\newlabel{index:linux-sous-windows}{{2.2.2}{8}{Linux sous Windows}{subsection.2.2.2}{}}
\@writefile{toc}{\contentsline {subsubsection}{Activer le mode développeur de Windows 10}{8}{subsubsection*.8}\protected@file@percent }
\newlabel{index:activer-le-mode-developpeur-de-windows-10}{{2.2.2}{8}{Activer le mode développeur de Windows 10}{subsubsection*.8}{}}
\@writefile{toc}{\contentsline {subsubsection}{Installer le sous\sphinxhyphen {}système Windows pour Linux}{9}{subsubsection*.9}\protected@file@percent }
\newlabel{index:installer-le-sous-systeme-windows-pour-linux}{{2.2.2}{9}{Installer le sous\sphinxhyphen {}système Windows pour Linux}{subsubsection*.9}{}}
\@writefile{toc}{\contentsline {subsubsection}{Choisir une distribution Linux pour Windows}{10}{subsubsection*.10}\protected@file@percent }
\newlabel{index:choisir-une-distribution-linux-pour-windows}{{2.2.2}{10}{Choisir une distribution Linux pour Windows}{subsubsection*.10}{}}
\@writefile{toc}{\contentsline {subsubsection}{Installer Linux}{11}{subsubsection*.11}\protected@file@percent }
\newlabel{index:installer-linux}{{2.2.2}{11}{Installer Linux}{subsubsection*.11}{}}
\@writefile{toc}{\contentsline {subsection}{\numberline {2.2.3}Environnements Windows sous MAC OS}{13}{subsection.2.2.3}\protected@file@percent }
\newlabel{index:environnements-windows-sous-mac-os}{{2.2.3}{13}{Environnements Windows sous MAC OS}{subsection.2.2.3}{}}
\@writefile{toc}{\contentsline {subsubsection}{PowerShell}{13}{subsubsection*.12}\protected@file@percent }
\newlabel{index:powershell}{{2.2.3}{13}{PowerShell}{subsubsection*.12}{}}
\@writefile{toc}{\contentsline {subsection}{\numberline {2.2.4}Environnements Windows sous Linux}{14}{subsection.2.2.4}\protected@file@percent }
\newlabel{index:environnements-windows-sous-linux}{{2.2.4}{14}{Environnements Windows sous Linux}{subsection.2.2.4}{}}
\@writefile{toc}{\contentsline {subsubsection}{PowerShell}{14}{subsubsection*.13}\protected@file@percent }
\newlabel{index:id3}{{2.2.4}{14}{PowerShell}{subsubsection*.13}{}}
\@writefile{toc}{\contentsline {paragraph}{La méthode recommandée est la suivante pour une distribution Debian}{14}{paragraph*.14}\protected@file@percent }
\newlabel{index:la-methode-recommandee-est-la-suivante-pour-une-distribution-debian}{{2.2.4}{14}{La méthode recommandée est la suivante pour une distribution Debian}{paragraph*.14}{}}
\@writefile{toc}{\contentsline {subsubsection}{Serveurs RDP (TSE)}{15}{subsubsection*.15}\protected@file@percent }
\newlabel{index:serveurs-rdp-tse}{{2.2.4}{15}{Serveurs RDP (TSE)}{subsubsection*.15}{}}
\@writefile{toc}{\contentsline {section}{\numberline {2.3}L’édition de code Python}{16}{section.2.3}\protected@file@percent }
\newlabel{index:l-edition-de-code-python}{{2.3}{16}{L’édition de code Python}{section.2.3}{}}
\@writefile{toc}{\contentsline {subsection}{\numberline {2.3.1}Installer un éditeur de code}{16}{subsection.2.3.1}\protected@file@percent }
\newlabel{index:installer-un-editeur-de-code}{{2.3.1}{16}{Installer un éditeur de code}{subsection.2.3.1}{}}
\@writefile{toc}{\contentsline {section}{\numberline {2.4}Interpréteurs}{18}{section.2.4}\protected@file@percent }
\newlabel{index:interpreteurs}{{2.4}{18}{Interpréteurs}{section.2.4}{}}
\@writefile{toc}{\contentsline {subsection}{\numberline {2.4.1}Installer Python}{18}{subsection.2.4.1}\protected@file@percent }
\newlabel{index:installer-python}{{2.4.1}{18}{Installer Python}{subsection.2.4.1}{}}
\@writefile{toc}{\contentsline {subsection}{\numberline {2.4.2}Mode Interactif}{18}{subsection.2.4.2}\protected@file@percent }
\newlabel{index:mode-interactif}{{2.4.2}{18}{Mode Interactif}{subsection.2.4.2}{}}
\@writefile{toc}{\contentsline {subsection}{\numberline {2.4.3}Les mots clé}{21}{subsection.2.4.3}\protected@file@percent }
\newlabel{index:les-mots-cle}{{2.4.3}{21}{Les mots clé}{subsection.2.4.3}{}}
\@writefile{toc}{\contentsline {subsection}{\numberline {2.4.4}Les fonctions de base de Python}{22}{subsection.2.4.4}\protected@file@percent }
\newlabel{index:les-fonctions-de-base-de-python}{{2.4.4}{22}{Les fonctions de base de Python}{subsection.2.4.4}{}}
\@writefile{toc}{\contentsline {subsection}{\numberline {2.4.5}Mode interprété}{23}{subsection.2.4.5}\protected@file@percent }
\newlabel{index:mode-interprete}{{2.4.5}{23}{Mode interprété}{subsection.2.4.5}{}}
\@writefile{toc}{\contentsline {subsubsection}{Conversion Python 2 vers Python 3}{23}{subsubsection*.16}\protected@file@percent }
\newlabel{index:conversion-python-2-vers-python-3}{{2.4.5}{23}{Conversion Python 2 vers Python 3}{subsubsection*.16}{}}
\@writefile{toc}{\contentsline {subsection}{\numberline {2.4.6}Mode Compilé}{25}{subsection.2.4.6}\protected@file@percent }
\newlabel{index:mode-compile}{{2.4.6}{25}{Mode Compilé}{subsection.2.4.6}{}}
\@writefile{toc}{\contentsline {section}{\numberline {2.5}Révision de code}{26}{section.2.5}\protected@file@percent }
\newlabel{index:revision-de-code}{{2.5}{26}{Révision de code}{section.2.5}{}}
\@writefile{toc}{\contentsline {subsection}{\numberline {2.5.1}Installer un logiciel de révision de code sur le poste de développement}{27}{subsection.2.5.1}\protected@file@percent }
\newlabel{index:installer-un-logiciel-de-revision-de-code-sur-le-poste-de-developpement}{{2.5.1}{27}{Installer un logiciel de révision de code sur le poste de développement}{subsection.2.5.1}{}}
\@writefile{toc}{\contentsline {subsubsection}{Installer git}{27}{subsubsection*.17}\protected@file@percent }
\newlabel{index:installer-git}{{2.5.1}{27}{Installer git}{subsubsection*.17}{}}
\@writefile{toc}{\contentsline {subsubsection}{Configurer git}{27}{subsubsection*.18}\protected@file@percent }
\newlabel{index:configurer-git}{{2.5.1}{27}{Configurer git}{subsubsection*.18}{}}
\@writefile{toc}{\contentsline {section}{\numberline {2.6}Environnement virtuel PYTHON 3}{29}{section.2.6}\protected@file@percent }
\newlabel{index:environnement-virtuel-python-3}{{2.6}{29}{Environnement virtuel PYTHON 3}{section.2.6}{}}
\@writefile{toc}{\contentsline {subsection}{\numberline {2.6.1}venv}{29}{subsection.2.6.1}\protected@file@percent }
\newlabel{index:venv}{{2.6.1}{29}{venv}{subsection.2.6.1}{}}
\@writefile{toc}{\contentsline {subsection}{\numberline {2.6.2}pipenv}{30}{subsection.2.6.2}\protected@file@percent }
\newlabel{index:pipenv}{{2.6.2}{30}{pipenv}{subsection.2.6.2}{}}
\@writefile{toc}{\contentsline {section}{\numberline {2.7}Documentation}{31}{section.2.7}\protected@file@percent }
\newlabel{index:documentation}{{2.7}{31}{Documentation}{section.2.7}{}}
\@writefile{toc}{\contentsline {subsection}{\numberline {2.7.1}Sauvegarder la structure de documentation}{33}{subsection.2.7.1}\protected@file@percent }
\newlabel{index:sauvegarder-la-structure-de-documentation}{{2.7.1}{33}{Sauvegarder la structure de documentation}{subsection.2.7.1}{}}
\@writefile{toc}{\contentsline {section}{\numberline {2.8}Débogages}{35}{section.2.8}\protected@file@percent }
\newlabel{index:debogages}{{2.8}{35}{Débogages}{section.2.8}{}}
\@writefile{toc}{\contentsline {subsection}{\numberline {2.8.1}Le débogueur Python pdb}{35}{subsection.2.8.1}\protected@file@percent }
\newlabel{index:le-debogueur-python-pdb}{{2.8.1}{35}{Le débogueur Python pdb}{subsection.2.8.1}{}}
\@writefile{toc}{\contentsline {subsubsection}{Installation de pdb}{35}{subsubsection*.19}\protected@file@percent }
\newlabel{index:installation-de-pdb}{{2.8.1}{35}{Installation de pdb}{subsubsection*.19}{}}
\@writefile{toc}{\contentsline {subsubsection}{Déboguer avec pdb}{35}{subsubsection*.20}\protected@file@percent }
\newlabel{index:deboguer-avec-pdb}{{2.8.1}{35}{Déboguer avec pdb}{subsubsection*.20}{}}
\@writefile{toc}{\contentsline {paragraph}{Postmortem}{36}{paragraph*.21}\protected@file@percent }
\newlabel{index:postmortem}{{2.8.1}{36}{Postmortem}{paragraph*.21}{}}
\@writefile{toc}{\contentsline {paragraph}{Lancez le module avec le débogueur}{36}{paragraph*.22}\protected@file@percent }
\newlabel{index:lancez-le-module-avec-le-debogueur}{{2.8.1}{36}{Lancez le module avec le débogueur}{paragraph*.22}{}}
\@writefile{toc}{\contentsline {paragraph}{Exécution pas à pas du débogueur}{36}{paragraph*.23}\protected@file@percent }
\newlabel{index:execution-pas-a-pas-du-debogueur}{{2.8.1}{36}{Exécution pas à pas du débogueur}{paragraph*.23}{}}
\@writefile{toc}{\contentsline {paragraph}{Appeler le débogueur à l’intérieur du module}{37}{paragraph*.24}\protected@file@percent }
\newlabel{index:appeler-le-debogueur-a-l-interieur-du-module}{{2.8.1}{37}{Appeler le débogueur à l’intérieur du module}{paragraph*.24}{}}
\@writefile{toc}{\contentsline {paragraph}{Les commandes du débogueur}{37}{paragraph*.25}\protected@file@percent }
\newlabel{index:les-commandes-du-debogueur}{{2.8.1}{37}{Les commandes du débogueur}{paragraph*.25}{}}
\@writefile{toc}{\contentsline {subsection}{\numberline {2.8.2}La Gestion des Warnings d’exécution}{39}{subsection.2.8.2}\protected@file@percent }
\newlabel{index:la-gestion-des-warnings-dexecution}{{2.8.2}{39}{La Gestion des Warnings d’exécution}{subsection.2.8.2}{}}
\@writefile{toc}{\contentsline {section}{\numberline {2.9}Tests Unitaires}{40}{section.2.9}\protected@file@percent }
\newlabel{index:tests-unitaires}{{2.9}{40}{Tests Unitaires}{section.2.9}{}}
\@writefile{toc}{\contentsline {subsection}{\numberline {2.9.1}Sauvegarder la structure de tests}{40}{subsection.2.9.1}\protected@file@percent }
\newlabel{index:sauvegarder-la-structure-de-tests}{{2.9.1}{40}{Sauvegarder la structure de tests}{subsection.2.9.1}{}}
\@writefile{toc}{\contentsline {section}{\numberline {2.10}L’industrialisation du code DEVOPS}{41}{section.2.10}\protected@file@percent }
\newlabel{index:lindustrialisation-du-code-devops}{{2.10}{41}{L’industrialisation du code DEVOPS}{section.2.10}{}}
\@writefile{toc}{\contentsline {subsection}{\numberline {2.10.1}Configurer le DNS local}{42}{subsection.2.10.1}\protected@file@percent }
\newlabel{index:configurer-le-dns-local}{{2.10.1}{42}{Configurer le DNS local}{subsection.2.10.1}{}}
\@writefile{toc}{\contentsline {subsubsection}{Installer une interface réseau virtuelle}{42}{subsubsection*.26}\protected@file@percent }
\newlabel{index:installer-une-interface-reseau-virtuelle}{{2.10.1}{42}{Installer une interface réseau virtuelle}{subsubsection*.26}{}}
\@writefile{toc}{\contentsline {subsubsection}{Configuration du client dhcp adaptée au DNS local}{42}{subsubsection*.27}\protected@file@percent }
\newlabel{index:configuration-du-client-dhcp-adaptee-au-dns-local}{{2.10.1}{42}{Configuration du client dhcp adaptée au DNS local}{subsubsection*.27}{}}
\@writefile{toc}{\contentsline {subsubsection}{Définir le domaine local de la machine Ubuntu}{43}{subsubsection*.28}\protected@file@percent }
\newlabel{index:definir-le-domaine-local-de-la-machine-ubuntu}{{2.10.1}{43}{Définir le domaine local de la machine Ubuntu}{subsubsection*.28}{}}
\@writefile{toc}{\contentsline {subsubsection}{Installer les applications de base}{43}{subsubsection*.29}\protected@file@percent }
\newlabel{index:installer-les-applications-de-base}{{2.10.1}{43}{Installer les applications de base}{subsubsection*.29}{}}
\@writefile{toc}{\contentsline {subsubsection}{Configuration du DNS local}{43}{subsubsection*.30}\protected@file@percent }
\newlabel{index:configuration-du-dns-local}{{2.10.1}{43}{Configuration du DNS local}{subsubsection*.30}{}}
\@writefile{toc}{\contentsline {subsubsection}{Tests du serveur DNS}{44}{subsubsection*.31}\protected@file@percent }
\newlabel{index:tests-du-serveur-dns}{{2.10.1}{44}{Tests du serveur DNS}{subsubsection*.31}{}}
\@writefile{toc}{\contentsline {paragraph}{Vérifications du serveur}{44}{paragraph*.32}\protected@file@percent }
\newlabel{index:verifications-du-serveur}{{2.10.1}{44}{Vérifications du serveur}{paragraph*.32}{}}
\@writefile{toc}{\contentsline {paragraph}{Vérifier la résolution DNS}{48}{paragraph*.33}\protected@file@percent }
\newlabel{index:verifier-la-resolution-dns}{{2.10.1}{48}{Vérifier la résolution DNS}{paragraph*.33}{}}
\@writefile{toc}{\contentsline {paragraph}{Vérifier la résolution externe}{49}{paragraph*.34}\protected@file@percent }
\newlabel{index:verifier-la-resolution-externe}{{2.10.1}{49}{Vérifier la résolution externe}{paragraph*.34}{}}
\@writefile{toc}{\contentsline {paragraph}{Vérifier la résolution inverse}{49}{paragraph*.35}\protected@file@percent }
\newlabel{index:verifier-la-resolution-inverse}{{2.10.1}{49}{Vérifier la résolution inverse}{paragraph*.35}{}}
\@writefile{toc}{\contentsline {subsubsection}{Paramétrer définitivement votre DNS pour gitlab}{49}{subsubsection*.36}\protected@file@percent }
\newlabel{index:parametrer-definitivement-votre-dns-pour-gitlab}{{2.10.1}{49}{Paramétrer définitivement votre DNS pour gitlab}{subsubsection*.36}{}}
\@writefile{toc}{\contentsline {subsection}{\numberline {2.10.2}Installer Docker}{52}{subsection.2.10.2}\protected@file@percent }
\newlabel{index:installer-docker}{{2.10.2}{52}{Installer Docker}{subsection.2.10.2}{}}
\@writefile{toc}{\contentsline {subsection}{\numberline {2.10.3}Tester Docker}{55}{subsection.2.10.3}\protected@file@percent }
\newlabel{index:tester-docker}{{2.10.3}{55}{Tester Docker}{subsection.2.10.3}{}}
\@writefile{toc}{\contentsline {subsection}{\numberline {2.10.4}Installer GitLab}{56}{subsection.2.10.4}\protected@file@percent }
\newlabel{index:installer-gitlab}{{2.10.4}{56}{Installer GitLab}{subsection.2.10.4}{}}
\@writefile{toc}{\contentsline {subsubsection}{Téléchargez le paquet d’installation GitLab pour Ubuntu et l’installer}{56}{subsubsection*.37}\protected@file@percent }
\newlabel{index:telechargez-le-paquet-dinstallation-gitlab-pour-ubuntu-et-linstaller}{{2.10.4}{56}{Téléchargez le paquet d’installation GitLab pour Ubuntu et l’installer}{subsubsection*.37}{}}
\@writefile{toc}{\contentsline {subsubsection}{Paramétrer GitLab}{56}{subsubsection*.38}\protected@file@percent }
\newlabel{index:parametrer-gitlab}{{2.10.4}{56}{Paramétrer GitLab}{subsubsection*.38}{}}
\@writefile{toc}{\contentsline {subsection}{\numberline {2.10.5}Configurer et tester GitLab}{57}{subsection.2.10.5}\protected@file@percent }
\newlabel{index:configurer-et-tester-gitlab}{{2.10.5}{57}{Configurer et tester GitLab}{subsection.2.10.5}{}}
\@writefile{toc}{\contentsline {subsection}{\numberline {2.10.6}Autorisations pour Docker et le Runner}{65}{subsection.2.10.6}\protected@file@percent }
\newlabel{index:autorisations-pour-docker-et-le-runner}{{2.10.6}{65}{Autorisations pour Docker et le Runner}{subsection.2.10.6}{}}
\@writefile{toc}{\contentsline {subsection}{\numberline {2.10.7}Configurer et tester le Runner}{66}{subsection.2.10.7}\protected@file@percent }
\newlabel{index:configurer-et-tester-le-runner}{{2.10.7}{66}{Configurer et tester le Runner}{subsection.2.10.7}{}}
\@writefile{toc}{\contentsline {subsubsection}{Tester le fonctionnement du runner}{71}{subsubsection*.39}\protected@file@percent }
\newlabel{index:tester-le-fonctionnement-du-runner}{{2.10.7}{71}{Tester le fonctionnement du runner}{subsubsection*.39}{}}
\@writefile{toc}{\contentsline {subsection}{\numberline {2.10.8}Tester les Pages GitLab}{76}{subsection.2.10.8}\protected@file@percent }
\newlabel{index:tester-les-pages-gitlab}{{2.10.8}{76}{Tester les Pages GitLab}{subsection.2.10.8}{}}
\@writefile{toc}{\contentsline {subsubsection}{Créer un projet de rendu de pages HTML}{76}{subsubsection*.40}\protected@file@percent }
\newlabel{index:creer-un-projet-de-rendu-de-pages-html}{{2.10.8}{76}{Créer un projet de rendu de pages HTML}{subsubsection*.40}{}}
\@writefile{toc}{\contentsline {subsubsection}{Créer le «runner» pour ce projet}{79}{subsubsection*.41}\protected@file@percent }
\newlabel{index:creer-le-runner-pour-ce-projet}{{2.10.8}{79}{Créer le «runner» pour ce projet}{subsubsection*.41}{}}
\@writefile{toc}{\contentsline {paragraph}{Déployer et tester le HTML dans une Pages GitLab}{82}{paragraph*.42}\protected@file@percent }
\newlabel{index:deployer-et-tester-le-html-dans-une-pages-gitlab}{{2.10.8}{82}{Déployer et tester le HTML dans une Pages GitLab}{paragraph*.42}{}}
\@writefile{toc}{\contentsline {chapter}{\numberline {3}Les principaux éléments de syntaxe}{87}{chapter.3}\protected@file@percent }
\@writefile{lof}{\addvspace {10\p@ }}
\@writefile{lot}{\addvspace {10\p@ }}
\newlabel{index:les-principaux-elements-de-syntaxe}{{3}{87}{Les principaux éléments de syntaxe}{chapter.3}{}}
\@writefile{toc}{\contentsline {section}{\numberline {3.1}Syntaxe et grammaire Python}{87}{section.3.1}\protected@file@percent }
\newlabel{index:syntaxe-et-grammaire-python}{{3.1}{87}{Syntaxe et grammaire Python}{section.3.1}{}}
\@writefile{toc}{\contentsline {subsection}{\numberline {3.1.1}L’identation}{88}{subsection.3.1.1}\protected@file@percent }
\newlabel{index:l-identation}{{3.1.1}{88}{L’identation}{subsection.3.1.1}{}}
\@writefile{toc}{\contentsline {subsection}{\numberline {3.1.2}Les commentaires}{90}{subsection.3.1.2}\protected@file@percent }
\newlabel{index:les-commentaires}{{3.1.2}{90}{Les commentaires}{subsection.3.1.2}{}}
\@writefile{toc}{\contentsline {subsection}{\numberline {3.1.3}Chaînes de caractères}{91}{subsection.3.1.3}\protected@file@percent }
\newlabel{index:chaines-de-caracteres}{{3.1.3}{91}{Chaînes de caractères}{subsection.3.1.3}{}}
\@writefile{toc}{\contentsline {subsection}{\numberline {3.1.4}Majuscules et Minuscules (Variables, instructions, fonctions, objets)}{92}{subsection.3.1.4}\protected@file@percent }
\newlabel{index:majuscules-et-minuscules-variables-instructions-fonctions-objets}{{3.1.4}{92}{Majuscules et Minuscules (Variables, instructions, fonctions, objets)}{subsection.3.1.4}{}}
\@writefile{toc}{\contentsline {subsection}{\numberline {3.1.5}Gestion des espaces}{93}{subsection.3.1.5}\protected@file@percent }
\newlabel{index:gestion-des-espaces}{{3.1.5}{93}{Gestion des espaces}{subsection.3.1.5}{}}
\@writefile{toc}{\contentsline {subsection}{\numberline {3.1.6}Les règles de base d’écriture des fonctions/procédures}{94}{subsection.3.1.6}\protected@file@percent }
\newlabel{index:les-regles-de-base-d-ecriture-des-fonctions-procedures}{{3.1.6}{94}{Les règles de base d’écriture des fonctions/procédures}{subsection.3.1.6}{}}
\@writefile{toc}{\contentsline {section}{\numberline {3.2}Utilisation de Python comme calculatrice}{96}{section.3.2}\protected@file@percent }
\newlabel{index:utilisation-de-python-comme-calculatrice}{{3.2}{96}{Utilisation de Python comme calculatrice}{section.3.2}{}}
\@writefile{toc}{\contentsline {section}{\numberline {3.3}Les variables}{98}{section.3.3}\protected@file@percent }
\newlabel{index:les-variables}{{3.3}{98}{Les variables}{section.3.3}{}}
\@writefile{toc}{\contentsline {subsection}{\numberline {3.3.1}L’affectation dans le code}{98}{subsection.3.3.1}\protected@file@percent }
\newlabel{index:laffectation-dans-le-code}{{3.3.1}{98}{L’affectation dans le code}{subsection.3.3.1}{}}
\@writefile{toc}{\contentsline {subsection}{\numberline {3.3.2}L’affectation au clavier}{99}{subsection.3.3.2}\protected@file@percent }
\newlabel{index:laffectation-au-clavier}{{3.3.2}{99}{L’affectation au clavier}{subsection.3.3.2}{}}
\@writefile{toc}{\contentsline {subsubsection}{La fonction input}{99}{subsubsection*.43}\protected@file@percent }
\newlabel{index:la-fonction-input}{{3.3.2}{99}{La fonction input}{subsubsection*.43}{}}
\@writefile{toc}{\contentsline {subsection}{\numberline {3.3.3}L’affectation par variables passées à un script}{100}{subsection.3.3.3}\protected@file@percent }
\newlabel{index:laffectation-par-variables-passees-a-un-script}{{3.3.3}{100}{L’affectation par variables passées à un script}{subsection.3.3.3}{}}
\@writefile{toc}{\contentsline {subsubsection}{Passage d’arguments en ligne de commande}{100}{subsubsection*.44}\protected@file@percent }
\newlabel{index:passage-d-arguments-en-ligne-de-commande}{{3.3.3}{100}{Passage d’arguments en ligne de commande}{subsubsection*.44}{}}
\@writefile{toc}{\contentsline {section}{\numberline {3.4}L’affichage d’informations}{101}{section.3.4}\protected@file@percent }
\newlabel{index:laffichage-d-informations}{{3.4}{101}{L’affichage d’informations}{section.3.4}{}}
\@writefile{toc}{\contentsline {subsection}{\numberline {3.4.1}À l’écran du terminal}{101}{subsection.3.4.1}\protected@file@percent }
\newlabel{index:a-lecran-du-terminal}{{3.4.1}{101}{À l’écran du terminal}{subsection.3.4.1}{}}
\@writefile{toc}{\contentsline {subsubsection}{Formatage de données}{101}{subsubsection*.45}\protected@file@percent }
\newlabel{index:formatage-de-donnees}{{3.4.1}{101}{Formatage de données}{subsubsection*.45}{}}
\@writefile{toc}{\contentsline {paragraph}{Les expressions formatées f' \{\} '}{101}{paragraph*.46}\protected@file@percent }
\newlabel{index:les-expressions-formatees-f}{{3.4.1}{101}{Les expressions formatées f' \{\} '}{paragraph*.46}{}}
\@writefile{toc}{\contentsline {paragraph}{La méthode str.format()}{101}{paragraph*.47}\protected@file@percent }
\newlabel{index:la-methode-str-format}{{3.4.1}{101}{La méthode str.format()}{paragraph*.47}{}}
\@writefile{toc}{\contentsline {paragraph}{Concaténations de tranches de chaînes}{102}{paragraph*.48}\protected@file@percent }
\newlabel{index:concatenations-de-tranches-de-chaines}{{3.4.1}{102}{Concaténations de tranches de chaînes}{paragraph*.48}{}}
\@writefile{toc}{\contentsline {subsubsection}{La sortie en chaînes de caractères}{102}{subsubsection*.49}\protected@file@percent }
\newlabel{index:la-sortie-en-chaines-de-caracteres}{{3.4.1}{102}{La sortie en chaînes de caractères}{subsubsection*.49}{}}
\@writefile{toc}{\contentsline {subsubsection}{Les \sphinxstyleemphasis {chaînes} de caractères formatées (f\sphinxhyphen {}strings)}{103}{subsubsection*.50}\protected@file@percent }
\newlabel{index:les-chaines-de-caracteres-formatees-f-strings}{{3.4.1}{103}{Les \sphinxstyleemphasis {chaînes} de caractères formatées (f\sphinxhyphen {}strings)}{subsubsection*.50}{}}
\@writefile{toc}{\contentsline {subsubsection}{La méthode de chaîne de caractères format()}{104}{subsubsection*.51}\protected@file@percent }
\newlabel{index:la-methode-de-chaine-de-caracteres-format}{{3.4.1}{104}{La méthode de chaîne de caractères format()}{subsubsection*.51}{}}
\@writefile{toc}{\contentsline {subsection}{\numberline {3.4.2}Logs Système}{106}{subsection.3.4.2}\protected@file@percent }
\newlabel{index:logs-systeme}{{3.4.2}{106}{Logs Système}{subsection.3.4.2}{}}
\@writefile{toc}{\contentsline {subsubsection}{Utiliser logging}{106}{subsubsection*.52}\protected@file@percent }
\newlabel{index:utiliser-logging}{{3.4.2}{106}{Utiliser logging}{subsubsection*.52}{}}
\@writefile{lot}{\contentsline {table}{\numberline {1}{\ignorespaces Choix du niveau d’information}}{106}{table.3.1}\protected@file@percent }
\newlabel{index:id11}{{1}{106}{Utiliser logging}{table.3.1}{}}
\@writefile{lot}{\contentsline {table}{\numberline {2}{\ignorespaces Typologie des journalisations}}{107}{table.3.2}\protected@file@percent }
\newlabel{index:id12}{{2}{107}{Utiliser logging}{table.3.2}{}}
\@writefile{toc}{\contentsline {subsubsection}{Un exemple simple}{107}{subsubsection*.53}\protected@file@percent }
\newlabel{index:un-exemple-simple}{{3.4.2}{107}{Un exemple simple}{subsubsection*.53}{}}
\@writefile{toc}{\contentsline {subsubsection}{Enregistrer les évènements dans un fichier}{107}{subsubsection*.54}\protected@file@percent }
\newlabel{index:enregistrer-les-evenements-dans-un-fichier}{{3.4.2}{107}{Enregistrer les évènements dans un fichier}{subsubsection*.54}{}}
\@writefile{toc}{\contentsline {subsubsection}{Régler le niveau de journalisation d’un script}{108}{subsubsection*.55}\protected@file@percent }
\newlabel{index:regler-le-niveau-de-journalisation-dun-script}{{3.4.2}{108}{Régler le niveau de journalisation d’un script}{subsubsection*.55}{}}
\@writefile{toc}{\contentsline {subsubsection}{Modifier le format du message affiché}{110}{subsubsection*.56}\protected@file@percent }
\newlabel{index:modifier-le-format-du-message-affiche}{{3.4.2}{110}{Modifier le format du message affiché}{subsubsection*.56}{}}
\@writefile{toc}{\contentsline {subsection}{\numberline {3.4.3}GUI}{111}{subsection.3.4.3}\protected@file@percent }
\newlabel{index:gui}{{3.4.3}{111}{GUI}{subsection.3.4.3}{}}
\@writefile{toc}{\contentsline {section}{\numberline {3.5}Les types de variables}{112}{section.3.5}\protected@file@percent }
\newlabel{index:les-types-de-variables}{{3.5}{112}{Les types de variables}{section.3.5}{}}
\@writefile{toc}{\contentsline {subsection}{\numberline {3.5.1}Logique}{112}{subsection.3.5.1}\protected@file@percent }
\newlabel{index:logique}{{3.5.1}{112}{Logique}{subsection.3.5.1}{}}
\@writefile{toc}{\contentsline {subsubsection}{Booléen}{112}{subsubsection*.57}\protected@file@percent }
\newlabel{index:booleen}{{3.5.1}{112}{Booléen}{subsubsection*.57}{}}
\@writefile{toc}{\contentsline {subsection}{\numberline {3.5.2}Chaînes de caractères}{113}{subsection.3.5.2}\protected@file@percent }
\newlabel{index:id4}{{3.5.2}{113}{Chaînes de caractères}{subsection.3.5.2}{}}
\@writefile{toc}{\contentsline {subsubsection}{Chaîne de caractère ASCII}{113}{subsubsection*.58}\protected@file@percent }
\newlabel{index:chaine-de-caractere-ascii}{{3.5.2}{113}{Chaîne de caractère ASCII}{subsubsection*.58}{}}
\@writefile{toc}{\contentsline {subsubsection}{Chaîne de caractère Unicode}{113}{subsubsection*.59}\protected@file@percent }
\newlabel{index:chaine-de-caractere-unicode}{{3.5.2}{113}{Chaîne de caractère Unicode}{subsubsection*.59}{}}
\@writefile{toc}{\contentsline {subsubsection}{Manipulation des chaînes de caractères}{113}{subsubsection*.60}\protected@file@percent }
\newlabel{index:manipulation-des-chaines-de-caracteres}{{3.5.2}{113}{Manipulation des chaînes de caractères}{subsubsection*.60}{}}
\@writefile{toc}{\contentsline {subsection}{\numberline {3.5.3}Nombres}{119}{subsection.3.5.3}\protected@file@percent }
\newlabel{index:nombres}{{3.5.3}{119}{Nombres}{subsection.3.5.3}{}}
\@writefile{toc}{\contentsline {subsubsection}{Nombre entier optimisé (int)}{119}{subsubsection*.61}\protected@file@percent }
\newlabel{index:nombre-entier-optimise-int}{{3.5.3}{119}{Nombre entier optimisé (int)}{subsubsection*.61}{}}
\@writefile{toc}{\contentsline {subsubsection}{Nombre entier de taille arbitraire (long int)}{119}{subsubsection*.62}\protected@file@percent }
\newlabel{index:nombre-entier-de-taille-arbitraire-long-int}{{3.5.3}{119}{Nombre entier de taille arbitraire (long int)}{subsubsection*.62}{}}
\@writefile{toc}{\contentsline {subsubsection}{Nombre à virgule flottante}{119}{subsubsection*.63}\protected@file@percent }
\newlabel{index:nombre-a-virgule-flottante}{{3.5.3}{119}{Nombre à virgule flottante}{subsubsection*.63}{}}
\@writefile{toc}{\contentsline {subsubsection}{Nombre complexe}{119}{subsubsection*.64}\protected@file@percent }
\newlabel{index:nombre-complexe}{{3.5.3}{119}{Nombre complexe}{subsubsection*.64}{}}
\@writefile{toc}{\contentsline {subsection}{\numberline {3.5.4}Données multiples}{120}{subsection.3.5.4}\protected@file@percent }
\newlabel{index:donnees-multiples}{{3.5.4}{120}{Données multiples}{subsection.3.5.4}{}}
\@writefile{toc}{\contentsline {subsubsection}{Liste de longueur fixe}{120}{subsubsection*.65}\protected@file@percent }
\newlabel{index:liste-de-longueur-fixe}{{3.5.4}{120}{Liste de longueur fixe}{subsubsection*.65}{}}
\@writefile{toc}{\contentsline {subsubsection}{Les ensembles}{121}{subsubsection*.66}\protected@file@percent }
\newlabel{index:les-ensembles}{{3.5.4}{121}{Les ensembles}{subsubsection*.66}{}}
\@writefile{toc}{\contentsline {subsubsection}{Liste de longueur variable}{122}{subsubsection*.67}\protected@file@percent }
\newlabel{index:liste-de-longueur-variable}{{3.5.4}{122}{Liste de longueur variable}{subsubsection*.67}{}}
\@writefile{toc}{\contentsline {paragraph}{Premiers pas vers la programmation}{124}{paragraph*.68}\protected@file@percent }
\newlabel{index:premiers-pas-vers-la-programmation}{{3.5.4}{124}{Premiers pas vers la programmation}{paragraph*.68}{}}
\@writefile{toc}{\contentsline {subsubsection}{Dictionnaire}{127}{subsubsection*.69}\protected@file@percent }
\newlabel{index:dictionnaire}{{3.5.4}{127}{Dictionnaire}{subsubsection*.69}{}}
\@writefile{toc}{\contentsline {subsection}{\numberline {3.5.5}Autres}{129}{subsection.3.5.5}\protected@file@percent }
\newlabel{index:autres}{{3.5.5}{129}{Autres}{subsection.3.5.5}{}}
\@writefile{toc}{\contentsline {subsubsection}{Fichier}{129}{subsubsection*.70}\protected@file@percent }
\newlabel{index:fichier}{{3.5.5}{129}{Fichier}{subsubsection*.70}{}}
\@writefile{toc}{\contentsline {subsubsection}{Absence de type}{129}{subsubsection*.71}\protected@file@percent }
\newlabel{index:absence-de-type}{{3.5.5}{129}{Absence de type}{subsubsection*.71}{}}
\@writefile{toc}{\contentsline {subsubsection}{Absence d’implémentation}{129}{subsubsection*.72}\protected@file@percent }
\newlabel{index:absence-dimplementation}{{3.5.5}{129}{Absence d’implémentation}{subsubsection*.72}{}}
\@writefile{toc}{\contentsline {subsubsection}{fonction}{129}{subsubsection*.73}\protected@file@percent }
\newlabel{index:fonction}{{3.5.5}{129}{fonction}{subsubsection*.73}{}}
\@writefile{toc}{\contentsline {subsubsection}{module}{129}{subsubsection*.74}\protected@file@percent }
\newlabel{index:module}{{3.5.5}{129}{module}{subsubsection*.74}{}}
\@writefile{toc}{\contentsline {section}{\numberline {3.6}Les fonctions intégrées}{130}{section.3.6}\protected@file@percent }
\newlabel{index:les-fonctions-integrees}{{3.6}{130}{Les fonctions intégrées}{section.3.6}{}}
\@writefile{toc}{\contentsline {subsection}{\numberline {3.6.1}Détermination du type d’une variable}{130}{subsection.3.6.1}\protected@file@percent }
\newlabel{index:determination-du-type-d-une-variable}{{3.6.1}{130}{Détermination du type d’une variable}{subsection.3.6.1}{}}
\@writefile{toc}{\contentsline {subsection}{\numberline {3.6.2}Conversion de types}{130}{subsection.3.6.2}\protected@file@percent }
\newlabel{index:conversion-de-types}{{3.6.2}{130}{Conversion de types}{subsection.3.6.2}{}}
\@writefile{toc}{\contentsline {subsection}{\numberline {3.6.3}Voir les propriétés des fonctions}{131}{subsection.3.6.3}\protected@file@percent }
\newlabel{index:voir-les-proprietes-des-fonctions}{{3.6.3}{131}{Voir les propriétés des fonctions}{subsection.3.6.3}{}}
\@writefile{toc}{\contentsline {subsubsection}{Fonction d’aide sur les fonctions Python}{131}{subsubsection*.75}\protected@file@percent }
\newlabel{index:fonction-d-aide-sur-les-fonctions-python}{{3.6.3}{131}{Fonction d’aide sur les fonctions Python}{subsubsection*.75}{}}
\@writefile{toc}{\contentsline {subsubsection}{Fonction de visualisation des propriétés et méthodes des fonctions Python}{131}{subsubsection*.76}\protected@file@percent }
\newlabel{index:fonction-de-visualisation-des-proprietes-et-methodes-des-fonctions-python}{{3.6.3}{131}{Fonction de visualisation des propriétés et méthodes des fonctions Python}{subsubsection*.76}{}}
\@writefile{toc}{\contentsline {subsubsection}{L’identification des objets}{132}{subsubsection*.77}\protected@file@percent }
\newlabel{index:l-identification-des-objets}{{3.6.3}{132}{L’identification des objets}{subsubsection*.77}{}}
\@writefile{toc}{\contentsline {subsection}{\numberline {3.6.4}Zoom sur fonctions et propriétés}{133}{subsection.3.6.4}\protected@file@percent }
\newlabel{index:zoom-sur-fonctions-et-proprietes}{{3.6.4}{133}{Zoom sur fonctions et propriétés}{subsection.3.6.4}{}}
\@writefile{toc}{\contentsline {subsubsection}{Range}{133}{subsubsection*.78}\protected@file@percent }
\newlabel{index:range}{{3.6.4}{133}{Range}{subsubsection*.78}{}}
\@writefile{toc}{\contentsline {subsubsection}{Chaînes de caractères}{135}{subsubsection*.79}\protected@file@percent }
\newlabel{index:id5}{{3.6.4}{135}{Chaînes de caractères}{subsubsection*.79}{}}
\@writefile{toc}{\contentsline {paragraph}{split() : sépare une chaîne en liste}{135}{paragraph*.80}\protected@file@percent }
\newlabel{index:split-separe-une-chaine-en-liste}{{3.6.4}{135}{split() : sépare une chaîne en liste}{paragraph*.80}{}}
\@writefile{toc}{\contentsline {paragraph}{join() : Concatène une liste de caractères}{135}{paragraph*.81}\protected@file@percent }
\newlabel{index:join-concatene-une-liste-de-caracteres}{{3.6.4}{135}{join() : Concatène une liste de caractères}{paragraph*.81}{}}
\@writefile{toc}{\contentsline {section}{\numberline {3.7}Les modules}{137}{section.3.7}\protected@file@percent }
\newlabel{index:les-modules}{{3.7}{137}{Les modules}{section.3.7}{}}
\@writefile{toc}{\contentsline {subsection}{\numberline {3.7.1}\_\_name\_\_ et \_\_main\_\_}{137}{subsection.3.7.1}\protected@file@percent }
\newlabel{index:name-et-main}{{3.7.1}{137}{\_\_name\_\_ et \_\_main\_\_}{subsection.3.7.1}{}}
\@writefile{toc}{\contentsline {subsection}{\numberline {3.7.2}Gestion des imports}{138}{subsection.3.7.2}\protected@file@percent }
\newlabel{index:gestion-des-imports}{{3.7.2}{138}{Gestion des imports}{subsection.3.7.2}{}}
\@writefile{toc}{\contentsline {section}{\numberline {3.8}Les bibliothèques de fonctions ou d’objets}{139}{section.3.8}\protected@file@percent }
\newlabel{index:les-bibliotheques-de-fonctions-ou-dobjets}{{3.8}{139}{Les bibliothèques de fonctions ou d’objets}{section.3.8}{}}
\@writefile{toc}{\contentsline {subsection}{\numberline {3.8.1}Les modules PYTHON}{139}{subsection.3.8.1}\protected@file@percent }
\newlabel{index:les-modules-python}{{3.8.1}{139}{Les modules PYTHON}{subsection.3.8.1}{}}
\@writefile{toc}{\contentsline {subsection}{\numberline {3.8.2}Le dépôt de modules Python}{140}{subsection.3.8.2}\protected@file@percent }
\newlabel{index:le-depot-de-modules-python}{{3.8.2}{140}{Le dépôt de modules Python}{subsection.3.8.2}{}}
\@writefile{toc}{\contentsline {subsubsection}{Pip}{140}{subsubsection*.82}\protected@file@percent }
\newlabel{index:pip}{{3.8.2}{140}{Pip}{subsubsection*.82}{}}
\@writefile{toc}{\contentsline {paragraph}{PIP c’est quoi ?}{140}{paragraph*.83}\protected@file@percent }
\newlabel{index:pip-c-est-quoi}{{3.8.2}{140}{PIP c’est quoi ?}{paragraph*.83}{}}
\@writefile{toc}{\contentsline {subsection}{\numberline {3.8.3}Les modules de gestion des paramètres de la ligne de commande}{142}{subsection.3.8.3}\protected@file@percent }
\newlabel{index:les-modules-de-gestion-des-parametres-de-la-ligne-de-commande}{{3.8.3}{142}{Les modules de gestion des paramètres de la ligne de commande}{subsection.3.8.3}{}}
\@writefile{toc}{\contentsline {subsubsection}{Modules dépréciés}{142}{subsubsection*.84}\protected@file@percent }
\newlabel{index:modules-deprecies}{{3.8.3}{142}{Modules dépréciés}{subsubsection*.84}{}}
\@writefile{toc}{\contentsline {subsubsection}{Argparse}{143}{subsubsection*.85}\protected@file@percent }
\newlabel{index:argparse}{{3.8.3}{143}{Argparse}{subsubsection*.85}{}}
\@writefile{toc}{\contentsline {paragraph}{Utilisation du module}{143}{paragraph*.86}\protected@file@percent }
\newlabel{index:utilisation-du-module}{{3.8.3}{143}{Utilisation du module}{paragraph*.86}{}}
\@writefile{toc}{\contentsline {paragraph}{Ajout d’options}{144}{paragraph*.87}\protected@file@percent }
\newlabel{index:ajout-d-options}{{3.8.3}{144}{Ajout d’options}{paragraph*.87}{}}
\@writefile{toc}{\contentsline {paragraph}{Exemples}{144}{paragraph*.88}\protected@file@percent }
\newlabel{index:exemples}{{3.8.3}{144}{Exemples}{paragraph*.88}{}}
\@writefile{toc}{\contentsline {subsection}{\numberline {3.8.4}Gestion des dates et du temps}{163}{subsection.3.8.4}\protected@file@percent }
\newlabel{index:gestion-des-dates-et-du-temps}{{3.8.4}{163}{Gestion des dates et du temps}{subsection.3.8.4}{}}
\@writefile{toc}{\contentsline {subsubsection}{Date et heure}{163}{subsubsection*.89}\protected@file@percent }
\newlabel{index:date-et-heure}{{3.8.4}{163}{Date et heure}{subsubsection*.89}{}}
\@writefile{toc}{\contentsline {subsubsection}{Durée}{164}{subsubsection*.90}\protected@file@percent }
\newlabel{index:duree}{{3.8.4}{164}{Durée}{subsubsection*.90}{}}
\@writefile{toc}{\contentsline {subsubsection}{Calendrier}{165}{subsubsection*.91}\protected@file@percent }
\newlabel{index:calendrier}{{3.8.4}{165}{Calendrier}{subsubsection*.91}{}}
\@writefile{toc}{\contentsline {subsection}{\numberline {3.8.5}Module Windows}{167}{subsection.3.8.5}\protected@file@percent }
\newlabel{index:module-windows}{{3.8.5}{167}{Module Windows}{subsection.3.8.5}{}}
\@writefile{toc}{\contentsline {section}{\numberline {3.9}L’organisation du code}{171}{section.3.9}\protected@file@percent }
\newlabel{index:lorganisation-du-code}{{3.9}{171}{L’organisation du code}{section.3.9}{}}
\@writefile{toc}{\contentsline {subsection}{\numberline {3.9.1}Structures de contrôles}{171}{subsection.3.9.1}\protected@file@percent }
\newlabel{index:structures-de-controles}{{3.9.1}{171}{Structures de contrôles}{subsection.3.9.1}{}}
\@writefile{toc}{\contentsline {subsubsection}{Structures alternatives}{171}{subsubsection*.92}\protected@file@percent }
\newlabel{index:structures-alternatives}{{3.9.1}{171}{Structures alternatives}{subsubsection*.92}{}}
\@writefile{toc}{\contentsline {paragraph}{If, else, elif}{171}{paragraph*.93}\protected@file@percent }
\newlabel{index:if-else-elif}{{3.9.1}{171}{If, else, elif}{paragraph*.93}{}}
\@writefile{toc}{\contentsline {subsubsection}{Structures itératives}{171}{subsubsection*.94}\protected@file@percent }
\newlabel{index:structures-iteratives}{{3.9.1}{171}{Structures itératives}{subsubsection*.94}{}}
\@writefile{toc}{\contentsline {paragraph}{For in}{171}{paragraph*.95}\protected@file@percent }
\newlabel{index:for-in}{{3.9.1}{171}{For in}{paragraph*.95}{}}
\@writefile{toc}{\contentsline {paragraph}{While}{173}{paragraph*.96}\protected@file@percent }
\newlabel{index:while}{{3.9.1}{173}{While}{paragraph*.96}{}}
\@writefile{toc}{\contentsline {subparagraph}{break, continue}{173}{subparagraph*.97}\protected@file@percent }
\newlabel{index:break-continue}{{3.9.1}{173}{break, continue}{subparagraph*.97}{}}
\@writefile{toc}{\contentsline {subparagraph}{pass}{174}{subparagraph*.98}\protected@file@percent }
\newlabel{index:pass}{{3.9.1}{174}{pass}{subparagraph*.98}{}}
\@writefile{toc}{\contentsline {paragraph}{alternative do while}{175}{paragraph*.99}\protected@file@percent }
\newlabel{index:alternative-do-while}{{3.9.1}{175}{alternative do while}{paragraph*.99}{}}
\@writefile{toc}{\contentsline {paragraph}{Techniques de boucles des dictionnaires}{175}{paragraph*.100}\protected@file@percent }
\newlabel{index:techniques-de-boucles-des-dictionnaires}{{3.9.1}{175}{Techniques de boucles des dictionnaires}{paragraph*.100}{}}
\@writefile{toc}{\contentsline {chapter}{\numberline {4}La génération de la documentation du programme}{179}{chapter.4}\protected@file@percent }
\@writefile{lof}{\addvspace {10\p@ }}
\@writefile{lot}{\addvspace {10\p@ }}
\newlabel{index:la-generation-de-la-documentation-du-programme}{{4}{179}{La génération de la documentation du programme}{chapter.4}{}}
\@writefile{toc}{\contentsline {section}{\numberline {4.1}Configurer Sphinx pour Python}{180}{section.4.1}\protected@file@percent }
\newlabel{index:configurer-sphinx-pour-python}{{4.1}{180}{Configurer Sphinx pour Python}{section.4.1}{}}
\@writefile{toc}{\contentsline {subsection}{\numberline {4.1.1}Renseigner la racine des fichiers de CODE}{180}{subsection.4.1.1}\protected@file@percent }
\newlabel{index:renseigner-la-racine-des-fichiers-de-code}{{4.1.1}{180}{Renseigner la racine des fichiers de CODE}{subsection.4.1.1}{}}
\@writefile{toc}{\contentsline {subsection}{\numberline {4.1.2}Configurer les paramètres de documentation}{180}{subsection.4.1.2}\protected@file@percent }
\newlabel{index:configurer-les-parametres-de-documentation}{{4.1.2}{180}{Configurer les paramètres de documentation}{subsection.4.1.2}{}}
\@writefile{toc}{\contentsline {subsection}{\numberline {4.1.3}Changer de thème pour votre documentation}{182}{subsection.4.1.3}\protected@file@percent }
\newlabel{index:changer-de-theme-pour-votre-documentation}{{4.1.3}{182}{Changer de thème pour votre documentation}{subsection.4.1.3}{}}
\@writefile{toc}{\contentsline {subsubsection}{Le thème sphinx book}{182}{subsubsection*.101}\protected@file@percent }
\newlabel{index:le-theme-sphinx-book}{{4.1.3}{182}{Le thème sphinx book}{subsubsection*.101}{}}
\@writefile{toc}{\contentsline {subsection}{\numberline {4.1.4}Inclure les extensions utiles pour Python}{186}{subsection.4.1.4}\protected@file@percent }
\newlabel{index:inclure-les-extensions-utiles-pour-python}{{4.1.4}{186}{Inclure les extensions utiles pour Python}{subsection.4.1.4}{}}
\@writefile{toc}{\contentsline {subsubsection}{Ajout des extensions utiles pour Python et Sphinx}{187}{subsubsection*.102}\protected@file@percent }
\newlabel{index:ajout-des-extensions-utiles-pour-python-et-sphinx}{{4.1.4}{187}{Ajout des extensions utiles pour Python et Sphinx}{subsubsection*.102}{}}
\@writefile{toc}{\contentsline {subsection}{\numberline {4.1.5}Configuration des extensions}{187}{subsection.4.1.5}\protected@file@percent }
\newlabel{index:configuration-des-extensions}{{4.1.5}{187}{Configuration des extensions}{subsection.4.1.5}{}}
\@writefile{toc}{\contentsline {subsubsection}{Intersphinx}{187}{subsubsection*.103}\protected@file@percent }
\newlabel{index:intersphinx}{{4.1.5}{187}{Intersphinx}{subsubsection*.103}{}}
\@writefile{toc}{\contentsline {subsubsection}{Extlinks}{188}{subsubsection*.104}\protected@file@percent }
\newlabel{index:extlinks}{{4.1.5}{188}{Extlinks}{subsubsection*.104}{}}
\@writefile{toc}{\contentsline {subsubsection}{Autodoc}{188}{subsubsection*.105}\protected@file@percent }
\newlabel{index:autodoc}{{4.1.5}{188}{Autodoc}{subsubsection*.105}{}}
\@writefile{toc}{\contentsline {subsubsection}{Inline Syntax highlight}{188}{subsubsection*.106}\protected@file@percent }
\newlabel{index:inline-syntax-highlight}{{4.1.5}{188}{Inline Syntax highlight}{subsubsection*.106}{}}
\@writefile{toc}{\contentsline {subsubsection}{Graphviz}{188}{subsubsection*.107}\protected@file@percent }
\newlabel{index:graphviz}{{4.1.5}{188}{Graphviz}{subsubsection*.107}{}}
\@writefile{toc}{\contentsline {subsubsection}{Copybutton}{189}{subsubsection*.108}\protected@file@percent }
\newlabel{index:copybutton}{{4.1.5}{189}{Copybutton}{subsubsection*.108}{}}
\@writefile{toc}{\contentsline {subsubsection}{Tabs}{189}{subsubsection*.109}\protected@file@percent }
\newlabel{index:tabs}{{4.1.5}{189}{Tabs}{subsubsection*.109}{}}
\@writefile{toc}{\contentsline {subsubsection}{Ifconfig}{190}{subsubsection*.110}\protected@file@percent }
\newlabel{index:ifconfig}{{4.1.5}{190}{Ifconfig}{subsubsection*.110}{}}
\@writefile{toc}{\contentsline {subsubsection}{LaTeX}{190}{subsubsection*.111}\protected@file@percent }
\newlabel{index:latex}{{4.1.5}{190}{LaTeX}{subsubsection*.111}{}}
\@writefile{toc}{\contentsline {subsubsection}{Pages de manuel}{191}{subsubsection*.112}\protected@file@percent }
\newlabel{index:pages-de-manuel}{{4.1.5}{191}{Pages de manuel}{subsubsection*.112}{}}
\@writefile{toc}{\contentsline {subsubsection}{Texinfo}{191}{subsubsection*.113}\protected@file@percent }
\newlabel{index:texinfo}{{4.1.5}{191}{Texinfo}{subsubsection*.113}{}}
\@writefile{toc}{\contentsline {subsubsection}{Epub}{192}{subsubsection*.114}\protected@file@percent }
\newlabel{index:epub}{{4.1.5}{192}{Epub}{subsubsection*.114}{}}
\@writefile{toc}{\contentsline {subsection}{\numberline {4.1.6}Générer la documentation}{192}{subsection.4.1.6}\protected@file@percent }
\newlabel{index:generer-la-documentation}{{4.1.6}{192}{Générer la documentation}{subsection.4.1.6}{}}
\@writefile{toc}{\contentsline {subsubsection}{Générer les formats odt ou docx}{193}{subsubsection*.115}\protected@file@percent }
\newlabel{index:generer-les-formats-odt-ou-docx}{{4.1.6}{193}{Générer les formats odt ou docx}{subsubsection*.115}{}}
\@writefile{toc}{\contentsline {subsubsection}{Générer l’internationalisation}{193}{subsubsection*.116}\protected@file@percent }
\newlabel{index:generer-linternationalisation}{{4.1.6}{193}{Générer l’internationalisation}{subsubsection*.116}{}}
\@writefile{toc}{\contentsline {section}{\numberline {4.2}Rédiger la documentation}{194}{section.4.2}\protected@file@percent }
\newlabel{index:rediger-la-documentation}{{4.2}{194}{Rédiger la documentation}{section.4.2}{}}
\@writefile{toc}{\contentsline {subsection}{\numberline {4.2.1}Parties, chapitres, sections, paragraphes}{195}{subsection.4.2.1}\protected@file@percent }
\newlabel{index:parties-chapitres-sections-paragraphes}{{4.2.1}{195}{Parties, chapitres, sections, paragraphes}{subsection.4.2.1}{}}
\@writefile{toc}{\contentsline {subsection}{\numberline {4.2.2}Mettre en forme du texte}{197}{subsection.4.2.2}\protected@file@percent }
\newlabel{index:mettre-en-forme-du-texte}{{4.2.2}{197}{Mettre en forme du texte}{subsection.4.2.2}{}}
\@writefile{toc}{\contentsline {subsection}{\numberline {4.2.3}Insertion de texte d’échappement}{199}{subsection.4.2.3}\protected@file@percent }
\newlabel{index:insertion-de-texte-dechappement}{{4.2.3}{199}{Insertion de texte d’échappement}{subsection.4.2.3}{}}
\@writefile{toc}{\contentsline {subsection}{\numberline {4.2.4}Les listes}{200}{subsection.4.2.4}\protected@file@percent }
\newlabel{index:les-listes}{{4.2.4}{200}{Les listes}{subsection.4.2.4}{}}
\@writefile{toc}{\contentsline {subsection}{\numberline {4.2.5}Les tableaux}{201}{subsection.4.2.5}\protected@file@percent }
\newlabel{index:les-tableaux}{{4.2.5}{201}{Les tableaux}{subsection.4.2.5}{}}
\@writefile{toc}{\contentsline {subsection}{\numberline {4.2.6}Insertion de blocs, code, image, graphviz, liens, mathématiques, notes, citations}{203}{subsection.4.2.6}\protected@file@percent }
\newlabel{index:insertion-de-blocs-code-image-graphviz-liens-mathematiques-notes-citations}{{4.2.6}{203}{Insertion de blocs, code, image, graphviz, liens, mathématiques, notes, citations}{subsection.4.2.6}{}}
\@writefile{toc}{\contentsline {subsection}{\numberline {4.2.7}Boites et conditions d’affichages}{205}{subsection.4.2.7}\protected@file@percent }
\newlabel{index:boites-et-conditions-daffichages}{{4.2.7}{205}{Boites et conditions d’affichages}{subsection.4.2.7}{}}
\@writefile{toc}{\contentsline {subsection}{\numberline {4.2.8}Documenter le code Python}{209}{subsection.4.2.8}\protected@file@percent }
\newlabel{index:documenter-le-code-python}{{4.2.8}{209}{Documenter le code Python}{subsection.4.2.8}{}}
\@writefile{toc}{\contentsline {subsubsection}{Balise de méta\sphinxhyphen {}information}{211}{subsubsection*.117}\protected@file@percent }
\newlabel{index:balise-de-meta-information}{{4.2.8}{211}{Balise de méta\sphinxhyphen {}information}{subsubsection*.117}{}}
\@writefile{toc}{\contentsline {paragraph}{sectionauthor}{211}{paragraph*.118}\protected@file@percent }
\newlabel{index:sectionauthor}{{4.2.8}{211}{sectionauthor}{paragraph*.118}{}}
\@writefile{toc}{\contentsline {subsubsection}{Balisages spécifiques au module}{211}{subsubsection*.119}\protected@file@percent }
\newlabel{index:balisages-specifiques-au-module}{{4.2.8}{211}{Balisages spécifiques au module}{subsubsection*.119}{}}
\@writefile{toc}{\contentsline {paragraph}{module}{212}{paragraph*.120}\protected@file@percent }
\newlabel{index:id9}{{4.2.8}{212}{module}{paragraph*.120}{}}
\@writefile{toc}{\contentsline {paragraph}{moduleauthor}{212}{paragraph*.121}\protected@file@percent }
\newlabel{index:moduleauthor}{{4.2.8}{212}{moduleauthor}{paragraph*.121}{}}
\@writefile{toc}{\contentsline {subsubsection}{Pour le code, nos fonctions et nos classes}{213}{subsubsection*.122}\protected@file@percent }
\newlabel{index:pour-le-code-nos-fonctions-et-nos-classes}{{4.2.8}{213}{Pour le code, nos fonctions et nos classes}{subsubsection*.122}{}}
\@writefile{toc}{\contentsline {section}{\numberline {4.3}Mise en œuvre de la documentation avec Gitlab}{218}{section.4.3}\protected@file@percent }
\newlabel{index:mise-en-oeuvre-de-la-documentation-avec-gitlab}{{4.3}{218}{Mise en œuvre de la documentation avec Gitlab}{section.4.3}{}}
\@writefile{toc}{\contentsline {subsection}{\numberline {4.3.1}Définition de la structure du document}{218}{subsection.4.3.1}\protected@file@percent }
\newlabel{index:definition-de-la-structure-du-document}{{4.3.1}{218}{Définition de la structure du document}{subsection.4.3.1}{}}
\@writefile{toc}{\contentsline {subsection}{\numberline {4.3.2}Générer la documentation avec un script}{219}{subsection.4.3.2}\protected@file@percent }
\newlabel{index:generer-la-documentation-avec-un-script}{{4.3.2}{219}{Générer la documentation avec un script}{subsection.4.3.2}{}}
\@writefile{toc}{\contentsline {subsection}{\numberline {4.3.3}Générer la documentation avec Gitlab}{221}{subsection.4.3.3}\protected@file@percent }
\newlabel{index:generer-la-documentation-avec-gitlab}{{4.3.3}{221}{Générer la documentation avec Gitlab}{subsection.4.3.3}{}}
\@writefile{toc}{\contentsline {subsubsection}{Génération de la documentation dans Gitlab}{221}{subsubsection*.123}\protected@file@percent }
\newlabel{index:generation-de-la-documentation-dans-gitlab}{{4.3.3}{221}{Génération de la documentation dans Gitlab}{subsubsection*.123}{}}
\@writefile{toc}{\contentsline {chapter}{\numberline {5}La qualité du code}{225}{chapter.5}\protected@file@percent }
\@writefile{lof}{\addvspace {10\p@ }}
\@writefile{lot}{\addvspace {10\p@ }}
\newlabel{index:la-qualite-du-code}{{5}{225}{La qualité du code}{chapter.5}{}}
\@writefile{toc}{\contentsline {section}{\numberline {5.1}Test de l’environnement Python dans Gitlab}{227}{section.5.1}\protected@file@percent }
\newlabel{index:test-de-lenvironnement-python-dans-gitlab}{{5.1}{227}{Test de l’environnement Python dans Gitlab}{section.5.1}{}}
\@writefile{toc}{\contentsline {section}{\numberline {5.2}Test de l’obsolescence du code Python dans Gitlab}{228}{section.5.2}\protected@file@percent }
\newlabel{index:test-de-l-obsolescence-du-code-python-dans-gitlab}{{5.2}{228}{Test de l’obsolescence du code Python dans Gitlab}{section.5.2}{}}
\@writefile{toc}{\contentsline {section}{\numberline {5.3}Test de qualité du code dans Gitlab}{234}{section.5.3}\protected@file@percent }
\newlabel{index:test-de-qualite-du-code-dans-gitlab}{{5.3}{234}{Test de qualité du code dans Gitlab}{section.5.3}{}}
\@writefile{toc}{\contentsline {chapter}{\numberline {6}Tests unitaire Python}{243}{chapter.6}\protected@file@percent }
\@writefile{lof}{\addvspace {10\p@ }}
\@writefile{lot}{\addvspace {10\p@ }}
\newlabel{index:tests-unitaire-python}{{6}{243}{Tests unitaire Python}{chapter.6}{}}
\@writefile{toc}{\contentsline {section}{\numberline {6.1}Le module Unittest}{243}{section.6.1}\protected@file@percent }
\newlabel{index:le-module-unittest}{{6.1}{243}{Le module Unittest}{section.6.1}{}}
\@writefile{toc}{\contentsline {subsection}{\numberline {6.1.1}Les valeurs de retour des tests}{245}{subsection.6.1.1}\protected@file@percent }
\newlabel{index:les-valeurs-de-retour-des-tests}{{6.1.1}{245}{Les valeurs de retour des tests}{subsection.6.1.1}{}}
\@writefile{toc}{\contentsline {subsubsection}{Tests réussits}{245}{subsubsection*.124}\protected@file@percent }
\newlabel{index:tests-reussits}{{6.1.1}{245}{Tests réussits}{subsubsection*.124}{}}
\@writefile{toc}{\contentsline {subsubsection}{Modification engendrant un échec}{246}{subsubsection*.125}\protected@file@percent }
\newlabel{index:modification-engendrant-un-echec}{{6.1.1}{246}{Modification engendrant un échec}{subsubsection*.125}{}}
\@writefile{toc}{\contentsline {subsubsection}{Modification engendrant une erreur}{246}{subsubsection*.126}\protected@file@percent }
\newlabel{index:modification-engendrant-une-erreur}{{6.1.1}{246}{Modification engendrant une erreur}{subsubsection*.126}{}}
\@writefile{toc}{\contentsline {subsection}{\numberline {6.1.2}Exécution de l’ensemble de tests}{247}{subsection.6.1.2}\protected@file@percent }
\newlabel{index:execution-de-lensemble-de-tests}{{6.1.2}{247}{Exécution de l’ensemble de tests}{subsection.6.1.2}{}}
\@writefile{toc}{\contentsline {subsection}{\numberline {6.1.3}Présentation et architecture des tests}{248}{subsection.6.1.3}\protected@file@percent }
\newlabel{index:presentation-et-architecture-des-tests}{{6.1.3}{248}{Présentation et architecture des tests}{subsection.6.1.3}{}}
\@writefile{toc}{\contentsline {subsection}{\numberline {6.1.4}Les différents tests de Unittest}{250}{subsection.6.1.4}\protected@file@percent }
\newlabel{index:les-differents-tests-de-unittest}{{6.1.4}{250}{Les différents tests de Unittest}{subsection.6.1.4}{}}
\@writefile{lot}{\contentsline {table}{\numberline {1}{\ignorespaces tests Unittest}}{250}{table.6.1}\protected@file@percent }
\newlabel{index:id13}{{1}{250}{Les différents tests de Unittest}{table.6.1}{}}
\@writefile{toc}{\contentsline {section}{\numberline {6.2}Mise en œuvre avec Gitlab}{251}{section.6.2}\protected@file@percent }
\newlabel{index:mise-en-oeuvre-avec-gitlab}{{6.2}{251}{Mise en œuvre avec Gitlab}{section.6.2}{}}
\@writefile{toc}{\contentsline {chapter}{\numberline {7}Les procédures et fonctions}{257}{chapter.7}\protected@file@percent }
\@writefile{lof}{\addvspace {10\p@ }}
\@writefile{lot}{\addvspace {10\p@ }}
\newlabel{index:les-procedures-et-fonctions}{{7}{257}{Les procédures et fonctions}{chapter.7}{}}
\@writefile{toc}{\contentsline {section}{\numberline {7.1}Définir une procédure/fonction}{257}{section.7.1}\protected@file@percent }
\newlabel{index:definir-une-procedure-fonction}{{7.1}{257}{Définir une procédure/fonction}{section.7.1}{}}
\@writefile{toc}{\contentsline {subsection}{\numberline {7.1.1}Corps de la procédure/fonction}{258}{subsection.7.1.1}\protected@file@percent }
\newlabel{index:corps-de-la-procedure-fonction}{{7.1.1}{258}{Corps de la procédure/fonction}{subsection.7.1.1}{}}
\@writefile{toc}{\contentsline {subsection}{\numberline {7.1.2}Procédure sans paramètres}{258}{subsection.7.1.2}\protected@file@percent }
\newlabel{index:procedure-sans-parametres}{{7.1.2}{258}{Procédure sans paramètres}{subsection.7.1.2}{}}
\@writefile{toc}{\contentsline {subsection}{\numberline {7.1.3}Fonction sans paramètres}{258}{subsection.7.1.3}\protected@file@percent }
\newlabel{index:fonction-sans-parametres}{{7.1.3}{258}{Fonction sans paramètres}{subsection.7.1.3}{}}
\@writefile{toc}{\contentsline {subsection}{\numberline {7.1.4}Paramètres d’une fonction/procédure}{259}{subsection.7.1.4}\protected@file@percent }
\newlabel{index:parametres-d-une-fonction-procedure}{{7.1.4}{259}{Paramètres d’une fonction/procédure}{subsection.7.1.4}{}}
\@writefile{toc}{\contentsline {subsubsection}{Utilisation d’une variable comme paramètre}{259}{subsubsection*.127}\protected@file@percent }
\newlabel{index:utilisation-dune-variable-comme-parametre}{{7.1.4}{259}{Utilisation d’une variable comme paramètre}{subsubsection*.127}{}}
\@writefile{toc}{\contentsline {subsubsection}{Plusieurs paramètres}{259}{subsubsection*.128}\protected@file@percent }
\newlabel{index:plusieurs-parametres}{{7.1.4}{259}{Plusieurs paramètres}{subsubsection*.128}{}}
\@writefile{toc}{\contentsline {subsubsection}{Valeurs par défaut des paramètres}{260}{subsubsection*.129}\protected@file@percent }
\newlabel{index:valeurs-par-defaut-des-parametres}{{7.1.4}{260}{Valeurs par défaut des paramètres}{subsubsection*.129}{}}
\@writefile{toc}{\contentsline {subsection}{\numberline {7.1.5}Variables locales ou globales}{262}{subsection.7.1.5}\protected@file@percent }
\newlabel{index:variables-locales-ou-globales}{{7.1.5}{262}{Variables locales ou globales}{subsection.7.1.5}{}}
\@writefile{toc}{\contentsline {subsubsection}{Utilisation d’une variable globale}{263}{subsubsection*.130}\protected@file@percent }
\newlabel{index:utilisation-dune-variable-globale}{{7.1.5}{263}{Utilisation d’une variable globale}{subsubsection*.130}{}}
\@writefile{toc}{\contentsline {subsection}{\numberline {7.1.6}Gestion des arguments nommés}{263}{subsection.7.1.6}\protected@file@percent }
\newlabel{index:gestion-des-arguments-nommes}{{7.1.6}{263}{Gestion des arguments nommés}{subsection.7.1.6}{}}
\@writefile{toc}{\contentsline {subsection}{\numberline {7.1.7}Paramètres spéciaux}{265}{subsection.7.1.7}\protected@file@percent }
\newlabel{index:parametres-speciaux}{{7.1.7}{265}{Paramètres spéciaux}{subsection.7.1.7}{}}
\@writefile{toc}{\contentsline {section}{\numberline {7.2}Documenter les fonctions}{268}{section.7.2}\protected@file@percent }
\newlabel{index:documenter-les-fonctions}{{7.2}{268}{Documenter les fonctions}{section.7.2}{}}
\@writefile{toc}{\contentsline {subsection}{\numberline {7.2.1}Annotations de fonctions}{269}{subsection.7.2.1}\protected@file@percent }
\newlabel{index:annotations-de-fonctions}{{7.2.1}{269}{Annotations de fonctions}{subsection.7.2.1}{}}
\@writefile{toc}{\contentsline {section}{\numberline {7.3}Création de bibliothèques de fonctions}{270}{section.7.3}\protected@file@percent }
\newlabel{index:creation-de-bibliotheques-de-fonctions}{{7.3}{270}{Création de bibliothèques de fonctions}{section.7.3}{}}
\@writefile{toc}{\contentsline {subsection}{\numberline {7.3.1}Les modules en détail}{270}{subsection.7.3.1}\protected@file@percent }
\newlabel{index:les-modules-en-detail}{{7.3.1}{270}{Les modules en détail}{subsection.7.3.1}{}}
\@writefile{toc}{\contentsline {subsection}{\numberline {7.3.2}Exécuter des modules comme des scripts}{272}{subsection.7.3.2}\protected@file@percent }
\newlabel{index:executer-des-modules-comme-des-scripts}{{7.3.2}{272}{Exécuter des modules comme des scripts}{subsection.7.3.2}{}}
\@writefile{toc}{\contentsline {subsection}{\numberline {7.3.3}Les dossiers de recherche de modules}{272}{subsection.7.3.3}\protected@file@percent }
\newlabel{index:les-dossiers-de-recherche-de-modules}{{7.3.3}{272}{Les dossiers de recherche de modules}{subsection.7.3.3}{}}
\@writefile{toc}{\contentsline {subsection}{\numberline {7.3.4}Modules Python «compilés»}{273}{subsection.7.3.4}\protected@file@percent }
\newlabel{index:modules-python-compiles}{{7.3.4}{273}{Modules Python «compilés»}{subsection.7.3.4}{}}
\@writefile{toc}{\contentsline {subsection}{\numberline {7.3.5}Astuces pour les experts}{273}{subsection.7.3.5}\protected@file@percent }
\newlabel{index:astuces-pour-les-experts}{{7.3.5}{273}{Astuces pour les experts}{subsection.7.3.5}{}}
\@writefile{toc}{\contentsline {subsection}{\numberline {7.3.6}Les paquets}{274}{subsection.7.3.6}\protected@file@percent }
\newlabel{index:les-paquets}{{7.3.6}{274}{Les paquets}{subsection.7.3.6}{}}
\@writefile{toc}{\contentsline {subsubsection}{Importer un paquet}{275}{subsubsection*.131}\protected@file@percent }
\newlabel{index:importer-un-paquet}{{7.3.6}{275}{Importer un paquet}{subsubsection*.131}{}}
\@writefile{toc}{\contentsline {subsubsection}{Références internes dans un paquet}{276}{subsubsection*.132}\protected@file@percent }
\newlabel{index:references-internes-dans-un-paquet}{{7.3.6}{276}{Références internes dans un paquet}{subsubsection*.132}{}}
\@writefile{toc}{\contentsline {subsubsection}{Paquets dans plusieurs dossiers}{277}{subsubsection*.133}\protected@file@percent }
\newlabel{index:paquets-dans-plusieurs-dossiers}{{7.3.6}{277}{Paquets dans plusieurs dossiers}{subsubsection*.133}{}}
\@writefile{toc}{\contentsline {chapter}{\numberline {8}Les objets}{279}{chapter.8}\protected@file@percent }
\@writefile{lof}{\addvspace {10\p@ }}
\@writefile{lot}{\addvspace {10\p@ }}
\newlabel{index:les-objets}{{8}{279}{Les objets}{chapter.8}{}}
\@writefile{toc}{\contentsline {section}{\numberline {8.1}Objet et caractéristiques}{279}{section.8.1}\protected@file@percent }
\newlabel{index:objet-et-caracteristiques}{{8.1}{279}{Objet et caractéristiques}{section.8.1}{}}
\@writefile{toc}{\contentsline {subsection}{\numberline {8.1.1}Type}{280}{subsection.8.1.1}\protected@file@percent }
\newlabel{index:type}{{8.1.1}{280}{Type}{subsection.8.1.1}{}}
\@writefile{toc}{\contentsline {subsection}{\numberline {8.1.2}Les attributs}{280}{subsection.8.1.2}\protected@file@percent }
\newlabel{index:les-attributs}{{8.1.2}{280}{Les attributs}{subsection.8.1.2}{}}
\@writefile{toc}{\contentsline {subsection}{\numberline {8.1.3}Les méthodes}{281}{subsection.8.1.3}\protected@file@percent }
\newlabel{index:les-methodes}{{8.1.3}{281}{Les méthodes}{subsection.8.1.3}{}}
\@writefile{toc}{\contentsline {section}{\numberline {8.2}Classes}{282}{section.8.2}\protected@file@percent }
\newlabel{index:classes}{{8.2}{282}{Classes}{section.8.2}{}}
\@writefile{toc}{\contentsline {subsection}{\numberline {8.2.1}Portées et espaces de nommage en Python}{283}{subsection.8.2.1}\protected@file@percent }
\newlabel{index:portees-et-espaces-de-nommage-en-python}{{8.2.1}{283}{Portées et espaces de nommage en Python}{subsection.8.2.1}{}}
\@writefile{toc}{\contentsline {subsubsection}{Exemple de portées et d’espaces de nommage}{285}{subsubsection*.134}\protected@file@percent }
\newlabel{index:exemple-de-portees-et-d-espaces-de-nommage}{{8.2.1}{285}{Exemple de portées et d’espaces de nommage}{subsubsection*.134}{}}
\@writefile{toc}{\contentsline {subsection}{\numberline {8.2.2}Passages d’arguments}{285}{subsection.8.2.2}\protected@file@percent }
\newlabel{index:passages-darguments}{{8.2.2}{285}{Passages d’arguments}{subsection.8.2.2}{}}
\@writefile{toc}{\contentsline {subsection}{\numberline {8.2.3}Méthodes spéciales \_\_repr\_\_ et \_\_str\_\_}{286}{subsection.8.2.3}\protected@file@percent }
\newlabel{index:methodes-speciales-repr-et-str}{{8.2.3}{286}{Méthodes spéciales \_\_repr\_\_ et \_\_str\_\_}{subsection.8.2.3}{}}
\@writefile{toc}{\contentsline {subsection}{\numberline {8.2.4}Variables privées, l’encapsulation}{288}{subsection.8.2.4}\protected@file@percent }
\newlabel{index:variables-privees-lencapsulation}{{8.2.4}{288}{Variables privées, l’encapsulation}{subsection.8.2.4}{}}
\@writefile{toc}{\contentsline {subsection}{\numberline {8.2.5}Duck\sphinxhyphen {}typing}{290}{subsection.8.2.5}\protected@file@percent }
\newlabel{index:duck-typing}{{8.2.5}{290}{Duck\sphinxhyphen {}typing}{subsection.8.2.5}{}}
\@writefile{toc}{\contentsline {section}{\numberline {8.3}Documenter les classes d’objets}{293}{section.8.3}\protected@file@percent }
\newlabel{index:documenter-les-classes-d-objets}{{8.3}{293}{Documenter les classes d’objets}{section.8.3}{}}
\@writefile{toc}{\contentsline {section}{\numberline {8.4}Notions avancées en objet}{296}{section.8.4}\protected@file@percent }
\newlabel{index:notions-avancees-en-objet}{{8.4}{296}{Notions avancées en objet}{section.8.4}{}}
\@writefile{toc}{\contentsline {subsection}{\numberline {8.4.1}Extension de classes}{296}{subsection.8.4.1}\protected@file@percent }
\newlabel{index:extension-de-classes}{{8.4.1}{296}{Extension de classes}{subsection.8.4.1}{}}
\@writefile{toc}{\contentsline {subsubsection}{Hériter}{296}{subsubsection*.135}\protected@file@percent }
\newlabel{index:heriter}{{8.4.1}{296}{Hériter}{subsubsection*.135}{}}
\@writefile{toc}{\contentsline {paragraph}{Sous\sphinxhyphen {}typage}{298}{paragraph*.136}\protected@file@percent }
\newlabel{index:sous-typage}{{8.4.1}{298}{Sous\sphinxhyphen {}typage}{paragraph*.136}{}}
\@writefile{toc}{\contentsline {subsubsection}{Redéfinition de méthodes, la surcharge}{298}{subsubsection*.137}\protected@file@percent }
\newlabel{index:redefinition-de-methodes-la-surcharge}{{8.4.1}{298}{Redéfinition de méthodes, la surcharge}{subsubsection*.137}{}}
\@writefile{toc}{\contentsline {subsubsection}{Héritage Conditionnel}{299}{subsubsection*.138}\protected@file@percent }
\newlabel{index:heritage-conditionnel}{{8.4.1}{299}{Héritage Conditionnel}{subsubsection*.138}{}}
\@writefile{toc}{\contentsline {paragraph}{Proxy de classes}{299}{paragraph*.139}\protected@file@percent }
\newlabel{index:proxy-de-classes}{{8.4.1}{299}{Proxy de classes}{paragraph*.139}{}}
\@writefile{toc}{\contentsline {paragraph}{Héritage conditionnel}{300}{paragraph*.140}\protected@file@percent }
\newlabel{index:id10}{{8.4.1}{300}{Héritage conditionnel}{paragraph*.140}{}}
\@writefile{toc}{\contentsline {subsubsection}{Héritages Multiples}{301}{subsubsection*.141}\protected@file@percent }
\newlabel{index:heritages-multiples}{{8.4.1}{301}{Héritages Multiples}{subsubsection*.141}{}}
\@writefile{toc}{\contentsline {paragraph}{Ordre d’héritage}{302}{paragraph*.142}\protected@file@percent }
\newlabel{index:ordre-dheritage}{{8.4.1}{302}{Ordre d’héritage}{paragraph*.142}{}}
\@writefile{toc}{\contentsline {paragraph}{Mixins}{304}{paragraph*.143}\protected@file@percent }
\newlabel{index:mixins}{{8.4.1}{304}{Mixins}{paragraph*.143}{}}
\@writefile{toc}{\contentsline {subsection}{\numberline {8.4.2}L’héritage conditionnel}{307}{subsection.8.4.2}\protected@file@percent }
\newlabel{index:l-heritage-conditionnel}{{8.4.2}{307}{L’héritage conditionnel}{subsection.8.4.2}{}}
\@writefile{toc}{\contentsline {subsection}{\numberline {8.4.3}Opérateurs}{310}{subsection.8.4.3}\protected@file@percent }
\newlabel{index:operateurs}{{8.4.3}{310}{Opérateurs}{subsection.8.4.3}{}}
\@writefile{toc}{\contentsline {subsubsection}{Opérateurs arithmétiques}{310}{subsubsection*.144}\protected@file@percent }
\newlabel{index:operateurs-arithmetiques}{{8.4.3}{310}{Opérateurs arithmétiques}{subsubsection*.144}{}}
\@writefile{toc}{\contentsline {subsubsection}{Opérateurs arithmétiques unaires}{312}{subsubsection*.145}\protected@file@percent }
\newlabel{index:operateurs-arithmetiques-unaires}{{8.4.3}{312}{Opérateurs arithmétiques unaires}{subsubsection*.145}{}}
\@writefile{toc}{\contentsline {subsubsection}{Opérateurs de comparaison}{312}{subsubsection*.146}\protected@file@percent }
\newlabel{index:operateurs-de-comparaison}{{8.4.3}{312}{Opérateurs de comparaison}{subsubsection*.146}{}}
\@writefile{toc}{\contentsline {subsubsection}{Autres opérateurs}{313}{subsubsection*.147}\protected@file@percent }
\newlabel{index:autres-operateurs}{{8.4.3}{313}{Autres opérateurs}{subsubsection*.147}{}}
\@writefile{toc}{\contentsline {subsubsection}{Exercice Arithmétique simple}{313}{subsubsection*.148}\protected@file@percent }
\newlabel{index:exercice-arithmetique-simple}{{8.4.3}{313}{Exercice Arithmétique simple}{subsubsection*.148}{}}
\@writefile{toc}{\contentsline {subsection}{\numberline {8.4.4}Les attributs de classe}{316}{subsection.8.4.4}\protected@file@percent }
\newlabel{index:les-attributs-de-classe}{{8.4.4}{316}{Les attributs de classe}{subsection.8.4.4}{}}
\@writefile{toc}{\contentsline {subsection}{\numberline {8.4.5}Méthodes de Classes}{317}{subsection.8.4.5}\protected@file@percent }
\newlabel{index:methodes-de-classes}{{8.4.5}{317}{Méthodes de Classes}{subsection.8.4.5}{}}
\@writefile{toc}{\contentsline {subsection}{\numberline {8.4.6}Méthodes statiques}{319}{subsection.8.4.6}\protected@file@percent }
\newlabel{index:methodes-statiques}{{8.4.6}{319}{Méthodes statiques}{subsection.8.4.6}{}}
\@writefile{toc}{\contentsline {subsection}{\numberline {8.4.7}Recherche d’attributs}{319}{subsection.8.4.7}\protected@file@percent }
\newlabel{index:recherche-dattributs}{{8.4.7}{319}{Recherche d’attributs}{subsection.8.4.7}{}}
\@writefile{toc}{\contentsline {subsection}{\numberline {8.4.8}Les propriétés}{320}{subsection.8.4.8}\protected@file@percent }
\newlabel{index:les-proprietes}{{8.4.8}{320}{Les propriétés}{subsection.8.4.8}{}}
\@writefile{toc}{\contentsline {subsection}{\numberline {8.4.9}Classes abstraites}{322}{subsection.8.4.9}\protected@file@percent }
\newlabel{index:classes-abstraites}{{8.4.9}{322}{Classes abstraites}{subsection.8.4.9}{}}
\@writefile{toc}{\contentsline {subsubsection}{Exercice : Base de données}{323}{subsubsection*.149}\protected@file@percent }
\newlabel{index:exercice-base-de-donnees}{{8.4.9}{323}{Exercice : Base de données}{subsubsection*.149}{}}
\@writefile{toc}{\contentsline {section}{\numberline {8.5}La visualisation de l’architecture objets}{326}{section.8.5}\protected@file@percent }
\newlabel{index:la-visualisation-de-larchitecture-objets}{{8.5}{326}{La visualisation de l’architecture objets}{section.8.5}{}}
\@writefile{toc}{\contentsline {subsection}{\numberline {8.5.1}Pyreverse}{326}{subsection.8.5.1}\protected@file@percent }
\newlabel{index:pyreverse}{{8.5.1}{326}{Pyreverse}{subsection.8.5.1}{}}
\@writefile{toc}{\contentsline {subsubsection}{Les options de la ligne de commande}{327}{subsubsection*.150}\protected@file@percent }
\newlabel{index:les-options-de-la-ligne-de-commande}{{8.5.1}{327}{Les options de la ligne de commande}{subsubsection*.150}{}}
\@writefile{lot}{\contentsline {table}{\numberline {1}{\ignorespaces Options de la ligne de commande de Pyreverse}}{327}{table.8.1}\protected@file@percent }
\newlabel{index:id14}{{1}{327}{Les options de la ligne de commande}{table.8.1}{}}
\@writefile{toc}{\contentsline {subsection}{\numberline {8.5.2}Mise en œuvre dans GitLab}{331}{subsection.8.5.2}\protected@file@percent }
\newlabel{index:mise-en-oeuvre-dans-gitlab}{{8.5.2}{331}{Mise en œuvre dans GitLab}{subsection.8.5.2}{}}
\gdef \@abspage@last{337}
